<?xml version="1.0" encoding="UTF-8" standalone="no"?>
<!-- Uploaded to: SVG Repo, www.svgrepo.com, Generator: SVG Repo Mixer Tools -->

<svg
   xmlns:dc="http://purl.org/dc/elements/1.1/"
   xmlns:cc="http://creativecommons.org/ns#"
   xmlns:rdf="http://www.w3.org/1999/02/22-rdf-syntax-ns#"
   xmlns:svg="http://www.w3.org/2000/svg"
   xmlns="http://www.w3.org/2000/svg"
   xmlns:sodipodi="http://sodipodi.sourceforge.net/DTD/sodipodi-0.dtd"
   xmlns:inkscape="http://www.inkscape.org/namespaces/inkscape"
   width="716.66663"
   height="716.66663"
   viewBox="0 0 21.499999 21.499999"
   version="1.1"
   id="svg8"
   sodipodi:docname="menu.svg"
   style="fill:none"
   inkscape:version="0.92.5 (2060ec1f9f, 2020-04-08)">
  <metadata
     id="metadata14">
    <rdf:RDF>
      <cc:Work
         rdf:about="">
        <dc:format>image/svg+xml</dc:format>
        <dc:type
           rdf:resource="http://purl.org/dc/dcmitype/StillImage" />
        <dc:title></dc:title>
      </cc:Work>
    </rdf:RDF>
  </metadata>
  <defs
     id="defs12" />
  <sodipodi:namedview
     pagecolor="#ffffff"
     bordercolor="#666666"
     borderopacity="1"
     objecttolerance="10"
     gridtolerance="10"
     guidetolerance="10"
     inkscape:pageopacity="0"
     inkscape:pageshadow="2"
     inkscape:window-width="1878"
     inkscape:window-height="1031"
     id="namedview10"
     showgrid="false"
     fit-margin-top="0"
     fit-margin-left="0"
     fit-margin-right="0"
     fit-margin-bottom="0"
     inkscape:zoom="0.295"
     inkscape:cx="305.79096"
     inkscape:cy="358.3333"
     inkscape:window-x="42"
     inkscape:window-y="25"
     inkscape:window-maximized="1"
     inkscape:current-layer="svg8" />
  <g
     id="style=bulk"
     transform="translate(-1.25,-1.25)">
    <g
       id="menu-hamburger">
      <path
         id="rectangle"
         d="m 1.25,7.25 c 0,-3.31371 2.68629,-6 6,-6 h 9.5 c 3.3137,0 6,2.68629 6,6 v 9.5 c 0,3.3137 -2.6863,6 -6,6 h -9.5 c -3.31371,0 -6,-2.6863 -6,-6 z"
         inkscape:connector-curvature="0"
         style="fill:#bfbfbf" />
      <path
         id="vector (Stroke)"
         d="M 4.25,7.75 C 4.25,7.33579 4.51691,7 4.84615,7 H 19.1538 c 0.3293,0 0.5962,0.33579 0.5962,0.75 0,0.41421 -0.2669,0.75 -0.5962,0.75 H 4.84615 C 4.51691,8.5 4.25,8.16421 4.25,7.75 Z"
         inkscape:connector-curvature="0"
         style="clip-rule:evenodd;fill:#000000;fill-rule:evenodd" />
      <path
         id="vector (Stroke)_2"
         d="m 4.25,12.25 c 0,-0.4142 0.26691,-0.75 0.59615,-0.75 H 19.1538 c 0.3293,0 0.5962,0.3358 0.5962,0.75 0,0.4142 -0.2669,0.75 -0.5962,0.75 H 4.84615 C 4.51691,13 4.25,12.6642 4.25,12.25 Z"
         inkscape:connector-curvature="0"
         style="clip-rule:evenodd;fill:#000000;fill-rule:evenodd" />
      <path
         id="vector (Stroke)_3"
         d="M 4.25,16.75 C 4.25,16.3358 4.51691,16 4.84615,16 H 19.1538 c 0.3293,0 0.5962,0.3358 0.5962,0.75 0,0.4142 -0.2669,0.75 -0.5962,0.75 H 4.84615 C 4.51691,17.5 4.25,17.1642 4.25,16.75 Z"
         inkscape:connector-curvature="0"
         style="clip-rule:evenodd;fill:#000000;fill-rule:evenodd" />
    </g>
  </g>
</svg>
